using files: 
input-train_pred50.series
target-train_pred50.series
input-test_pred50.series
target-test_pred50.series
input-validate_pred50.series
target-validate_pred50.series
0.020000	0.248481	0.057942
0.100000	0.299165	0.059872
0.440000	0.562126	0.056683
0.520000	0.624459	0.059044
0.650000	0.618080	0.053900
0.930000	0.886871	0.053847
1.760000	0.910906	0.052789
3.230000	0.825094	0.051423
4.050000	0.838542	0.049346
4.090000	0.849063	0.049126
5.730000	0.795592	0.049144
9.490000	0.815985	0.047042
10.760000	0.796617	0.046801
11.620000	0.801159	0.045462
12.060000	0.811210	0.044748
14.590000	0.811744	0.044816
15.050000	0.815896	0.045045
15.090000	0.852068	0.042405
17.210000	0.853122	0.042970
21.410000	0.861269	0.042719
22.900000	0.831011	0.043927
25.200000	0.864075	0.041707
27.320000	0.860587	0.041445
27.760000	0.858673	0.040907
28.210000	0.857834	0.040453
28.650000	0.857939	0.040023
28.700000	0.872667	0.040972
29.950000	0.879354	0.040633
30.820000	0.879109	0.040804
31.260000	0.878614	0.041118
32.120000	0.878557	0.040432
32.590000	0.880554	0.040416
33.430000	0.879844	0.040165
34.750000	0.880658	0.040299
35.190000	0.881715	0.040393
35.640000	0.882314	0.040468
36.070000	0.882675	0.040520
36.520000	0.882896	0.040553
36.960000	0.883033	0.040575
37.400000	0.883118	0.040589
37.770000	0.832728	0.041015
38.210000	0.833908	0.040826
38.650000	0.834537	0.040750
39.090000	0.834910	0.040718
39.540000	0.835136	0.040704
40.390000	0.835287	0.040690
40.830000	0.835293	0.040687
41.270000	0.835297	0.040686
41.710000	0.835299	0.040686
42.150000	0.835300	0.040686
42.590000	0.835301	0.040686
43.020000	0.835310	0.040686
43.460000	0.835310	0.040687
43.910000	0.835310	0.040687
43.950000	0.838163	0.040360
45.230000	0.837841	0.040459
46.500000	0.837567	0.040337
47.800000	0.836683	0.040341
48.650000	0.837411	0.040298
49.510000	0.837232	0.040287
49.790000	0.648575	0.042775
50.230000	0.840081	0.042180
50.650000	0.837432	0.042427
51.110000	0.837220	0.042582
52.390000	0.838238	0.042315
53.670000	0.838021	0.042357
55.000000	0.834301	0.042557
55.400000	0.838003	0.042380
55.440000	0.839092	0.042087
56.310000	0.838070	0.042262
57.190000	0.834878	0.042213
57.610000	0.833847	0.042127
58.070000	0.834157	0.042151
58.490000	0.833376	0.042201
58.540000	0.835052	0.042117
58.980000	0.835557	0.042103
59.410000	0.834658	0.042104
59.850000	0.834356	0.042036
59.890000	0.835282	0.042029
62.840000	0.835273	0.042036
63.250000	0.834507	0.042029
63.690000	0.835156	0.042008
64.140000	0.835517	0.042000
64.570000	0.834837	0.042064
64.630000	0.835389	0.041981
65.040000	0.835299	0.042039
65.080000	0.835534	0.041991
65.520000	0.835431	0.041988
65.940000	0.835876	0.041870
66.380000	0.835878	0.041811
66.810000	0.835880	0.041781
66.860000	0.835812	0.041762
67.280000	0.835963	0.041743
67.320000	0.835986	0.041723
67.740000	0.836055	0.041709
67.780000	0.836082	0.041702
67.830000	0.835816	0.041634
68.270000	0.835952	0.041593
68.310000	0.835429	0.041560
68.730000	0.835686	0.041555
68.770000	0.835513	0.041432
69.200000	0.835559	0.041374
69.620000	0.835432	0.041355
70.060000	0.835334	0.041296
70.100000	0.835527	0.041309
70.520000	0.835455	0.041268
70.940000	0.835286	0.041231
71.380000	0.835413	0.041222
71.790000	0.835419	0.041186
71.840000	0.835481	0.041218
72.250000	0.835382	0.041200
72.690000	0.835362	0.041209
72.750000	0.835545	0.041185
73.180000	0.835383	0.041150
73.220000	0.835588	0.041179
73.620000	0.835353	0.041144
74.050000	0.835353	0.041112
74.090000	0.835559	0.041121
74.510000	0.835506	0.041109
74.550000	0.835502	0.041113
74.990000	0.835472	0.041109
75.430000	0.835456	0.041107
75.870000	0.835447	0.041106
76.280000	0.835466	0.041096
76.320000	0.835443	0.041105
76.370000	0.835517	0.041098
76.770000	0.835346	0.041092
76.830000	0.835410	0.041092
77.260000	0.835354	0.041090
77.310000	0.835520	0.041126
77.720000	0.835459	0.041120
77.760000	0.835433	0.041112
78.180000	0.835509	0.041127
78.610000	0.835536	0.041132
78.660000	0.835332	0.041105
79.050000	0.835425	0.041125
79.120000	0.835304	0.041106
79.490000	0.835266	0.041106
79.530000	0.835414	0.041130
79.970000	0.835408	0.041133
80.400000	0.835407	0.041118
80.840000	0.835456	0.041112
81.280000	0.835481	0.041108
81.730000	0.835494	0.041107
82.160000	0.835501	0.041106
82.200000	0.835524	0.041099
82.650000	0.835530	0.041096
83.090000	0.835533	0.041095
83.150000	0.835424	0.041073
83.530000	0.835547	0.041091
83.590000	0.835331	0.041058
84.420000	0.835114	0.041030
86.530000	0.835032	0.041028
86.970000	0.834962	0.041026
87.430000	0.835081	0.041026
88.290000	0.835088	0.041028
88.330000	0.835106	0.041023
88.770000	0.835106	0.041019
89.210000	0.835106	0.041016
89.410000	0.870849	0.039074
90.270000	0.871067	0.038993
91.500000	0.871598	0.038934
91.940000	0.870316	0.038690
92.380000	0.869666	0.038602
93.670000	0.868910	0.038611
93.720000	0.874484	0.038315
94.160000	0.872357	0.038419
94.960000	0.872366	0.038517
95.400000	0.873554	0.038519
95.840000	0.873874	0.038492
96.280000	0.873926	0.038466
96.320000	0.874525	0.038423
97.200000	0.874994	0.038322
97.640000	0.874458	0.038269
97.690000	0.874979	0.038303
98.130000	0.875003	0.038192
99.020000	0.876454	0.038075
99.420000	0.875833	0.038187
99.480000	0.875849	0.037910
99.920000	0.875577	0.037837
100.370000	0.875455	0.037803
100.800000	0.875322	0.037740
100.840000	0.875400	0.037786
101.260000	0.875387	0.037646
101.700000	0.875430	0.037609
102.140000	0.875452	0.037592
102.590000	0.875463	0.037585
103.020000	0.875467	0.037581
103.070000	0.875414	0.037545
103.470000	0.875167	0.037444
103.940000	0.875748	0.037389
104.380000	0.875888	0.037337
104.780000	0.877502	0.037364
105.240000	0.876844	0.037348
106.050000	0.877480	0.037287
106.490000	0.877849	0.037242
106.540000	0.876973	0.037275
106.630000	0.876699	0.037145
107.030000	0.876930	0.037209
107.070000	0.876832	0.037090
107.510000	0.877082	0.037057
107.560000	0.877274	0.037083
107.950000	0.876723	0.037034
108.400000	0.876461	0.036952
108.810000	0.876345	0.036960
108.860000	0.876346	0.036920
109.290000	0.876501	0.036871
109.700000	0.875855	0.036865
109.740000	0.876564	0.036834
110.160000	0.876394	0.036808
111.450000	0.876324	0.036809
111.500000	0.876281	0.036813
111.540000	0.876305	0.036816
111.610000	0.876525	0.036857
112.010000	0.876206	0.036826
112.070000	0.876601	0.036850
112.490000	0.876491	0.036878
112.680000	0.840790	0.040446
112.730000	0.840377	0.040410
113.170000	0.840386	0.040412
113.400000	0.876227	0.036860
113.640000	0.840390	0.040414
113.680000	0.840598	0.040396
114.550000	0.840685	0.040397
115.010000	0.840167	0.040366
115.430000	0.840615	0.040379
115.470000	0.840205	0.040362
116.290000	0.840538	0.040376
116.330000	0.840349	0.040368
116.740000	0.840544	0.040356
116.780000	0.840287	0.040366
117.200000	0.840290	0.040358
117.250000	0.840180	0.040362
117.290000	0.840387	0.040370
117.710000	0.840294	0.040367
117.750000	0.840382	0.040370
118.170000	0.840411	0.040371
118.590000	0.840381	0.040361
119.030000	0.840439	0.040356
119.480000	0.840463	0.040354
119.920000	0.840508	0.040344
119.970000	0.840405	0.040337
120.380000	0.840424	0.040334
120.420000	0.840554	0.040307
120.860000	0.840615	0.040297
120.910000	0.840701	0.040281
121.400000	0.840456	0.040320
121.830000	0.840390	0.040300
122.260000	0.840518	0.040305
122.300000	0.840362	0.040292
122.700000	0.840518	0.040303
122.740000	0.840461	0.040286
123.180000	0.840438	0.040279
123.610000	0.840428	0.040273
123.650000	0.840428	0.040276
124.050000	0.840336	0.040271
124.090000	0.840451	0.040261
124.490000	0.840260	0.040258
124.530000	0.840379	0.040244
124.980000	0.840397	0.040233
125.860000	0.840413	0.040232
125.900000	0.840481	0.040235
126.330000	0.840472	0.040228
126.750000	0.840480	0.040220
127.170000	0.840549	0.040223
127.210000	0.840509	0.040214
127.630000	0.840561	0.040209
128.510000	0.840578	0.040208
128.950000	0.840585	0.040207
129.380000	0.840586	0.040204
129.810000	0.840593	0.040202
129.920000	0.840557	0.040196
130.340000	0.840519	0.040195
130.380000	0.840561	0.040194
130.790000	0.840524	0.040195
131.230000	0.840495	0.040191
131.640000	0.840529	0.040178
131.690000	0.840484	0.040190
132.110000	0.840461	0.040184
132.550000	0.840439	0.040186
132.970000	0.840416	0.040183
133.410000	0.840408	0.040181
133.850000	0.840405	0.040181
134.290000	0.840404	0.040181
134.330000	0.840400	0.040180
134.750000	0.840400	0.040180
134.790000	0.840396	0.040180
134.840000	0.840395	0.040180
135.250000	0.840393	0.040180
135.290000	0.840384	0.040179
135.340000	0.840387	0.040179
135.750000	0.840384	0.040178
135.800000	0.840373	0.040177
136.210000	0.840377	0.040178
136.260000	0.840368	0.040177
136.300000	0.840364	0.040175
136.730000	0.840353	0.040174
137.150000	0.840353	0.040174
137.190000	0.840349	0.040174
137.620000	0.840345	0.040173
138.030000	0.840347	0.040173
138.080000	0.840342	0.040173
138.470000	0.840347	0.040173
138.510000	0.840341	0.040173
138.930000	0.840344	0.040171
139.350000	0.840373	0.040166
139.780000	0.840380	0.040164
139.830000	0.840356	0.040168
140.260000	0.840358	0.040168
140.310000	0.840338	0.040171
140.720000	0.840339	0.040172
140.770000	0.840338	0.040171
141.180000	0.840338	0.040171
141.620000	0.840338	0.040171
141.670000	0.840339	0.040171
141.710000	0.840338	0.040171
142.130000	0.840339	0.040171
142.200000	0.840339	0.040172
142.590000	0.840339	0.040171
142.630000	0.840339	0.040172
142.680000	0.840340	0.040172
143.090000	0.840339	0.040172
143.130000	0.840340	0.040172
143.550000	0.840339	0.040172
143.990000	0.840340	0.040172
144.430000	0.840340	0.040172
144.840000	0.840341	0.040172
145.280000	0.840341	0.040172
145.700000	0.840341	0.040172
145.740000	0.840341	0.040172
145.780000	0.840341	0.040172
146.180000	0.840342	0.040172
146.600000	0.840342	0.040172
146.640000	0.840342	0.040172
147.060000	0.840342	0.040172
147.500000	0.840343	0.040172
147.540000	0.840342	0.040172
147.980000	0.840342	0.040172
148.420000	0.840342	0.040172
148.850000	0.840342	0.040172
148.900000	0.840342	0.040172
149.310000	0.840342	0.040171
149.350000	0.840342	0.040171
149.740000	0.840343	0.040171
149.790000	0.840342	0.040171
150.200000	0.840342	0.040171
150.640000	0.840342	0.040171
150.690000	0.840342	0.040171
150.770000	0.840343	0.040171
151.190000	0.840343	0.040171
151.230000	0.840343	0.040171
151.650000	0.840344	0.040171
152.090000	0.840344	0.040171
152.510000	0.840344	0.040171
152.930000	0.840344	0.040171
153.340000	0.840345	0.040171
153.780000	0.840345	0.040171
154.220000	0.840345	0.040171
154.660000	0.840345	0.040171
154.700000	0.840346	0.040171
155.140000	0.840346	0.040171
155.580000	0.840346	0.040171
155.620000	0.840346	0.040171
156.050000	0.840346	0.040171
156.090000	0.840346	0.040171
156.530000	0.840346	0.040171
156.570000	0.840346	0.040171
156.990000	0.840346	0.040171
157.040000	0.840346	0.040171
157.480000	0.840346	0.040171
157.520000	0.840346	0.040171
157.960000	0.840346	0.040171
158.380000	0.840346	0.040171
158.430000	0.840346	0.040171
158.830000	0.840346	0.040171
158.870000	0.840346	0.040171
159.290000	0.840346	0.040171
159.720000	0.840346	0.040171
160.160000	0.840346	0.040171
160.600000	0.840346	0.040171
160.640000	0.840346	0.040171
161.040000	0.840347	0.040171
161.100000	0.840347	0.040171
161.510000	0.840347	0.040171
161.950000	0.840347	0.040171
162.390000	0.840347	0.040171
162.470000	0.840347	0.040171
162.510000	0.840347	0.040171
162.960000	0.840347	0.040171
163.410000	0.840347	0.040171
163.820000	0.840347	0.040171
164.260000	0.840347	0.040171
164.700000	0.840347	0.040171
165.120000	0.840347	0.040171
165.540000	0.840347	0.040171
165.580000	0.840347	0.040171
165.980000	0.840347	0.040171
166.030000	0.840347	0.040171
166.450000	0.840347	0.040171
166.880000	0.840347	0.040171
166.930000	0.840347	0.040171
167.350000	0.840347	0.040171
167.390000	0.840347	0.040171
167.810000	0.840347	0.040171
167.850000	0.840347	0.040171
167.890000	0.840347	0.040171
168.340000	0.840347	0.040171
168.780000	0.840347	0.040171
169.230000	0.840347	0.040171
169.290000	0.840347	0.040171
169.710000	0.840347	0.040171
169.760000	0.840347	0.040171
170.170000	0.840347	0.040171
170.220000	0.840347	0.040171
170.660000	0.840347	0.040171
171.050000	0.840347	0.040171
171.100000	0.840347	0.040171
171.520000	0.840347	0.040171
171.950000	0.840347	0.040171
172.380000	0.840347	0.040171
172.810000	0.840347	0.040171
173.250000	0.840347	0.040171
173.690000	0.840347	0.040171
173.750000	0.840347	0.040171
174.200000	0.840347	0.040171
174.640000	0.840347	0.040171
174.680000	0.840347	0.040171
175.130000	0.840347	0.040171
175.550000	0.840347	0.040171
175.960000	0.840347	0.040171
176.400000	0.840347	0.040171
176.810000	0.840347	0.040171
177.270000	0.840347	0.040171
177.710000	0.840347	0.040171
178.140000	0.840347	0.040171
178.180000	0.840347	0.040171
178.220000	0.840347	0.040171
178.640000	0.840347	0.040171
178.690000	0.840347	0.040171
179.110000	0.840347	0.040171
179.170000	0.840347	0.040171
179.610000	0.840347	0.040171
179.650000	0.840347	0.040171
180.090000	0.840347	0.040171
180.540000	0.840347	0.040171
180.960000	0.840347	0.040171
181.380000	0.840347	0.040171
181.420000	0.840347	0.040171
181.860000	0.840347	0.040171
181.910000	0.840347	0.040171
182.280000	0.840347	0.040171
182.360000	0.840347	0.040171
182.720000	0.840347	0.040171
183.170000	0.840347	0.040171
183.600000	0.840347	0.040171
183.650000	0.840347	0.040171
184.070000	0.840347	0.040171
184.510000	0.840347	0.040171
184.610000	0.840347	0.040171
185.060000	0.840347	0.040171
185.500000	0.840347	0.040171
185.940000	0.840347	0.040171
186.360000	0.840347	0.040171
186.810000	0.840347	0.040171
187.240000	0.840347	0.040171
187.280000	0.840347	0.040171
187.680000	0.840347	0.040171
188.120000	0.840347	0.040171
188.540000	0.840347	0.040171
188.990000	0.840347	0.040171
189.410000	0.840347	0.040171
189.840000	0.840347	0.040171
190.280000	0.840347	0.040171
190.320000	0.840347	0.040171
190.750000	0.840347	0.040171
190.790000	0.840347	0.040171
191.250000	0.840347	0.040171
191.660000	0.840347	0.040171
191.710000	0.840347	0.040171
192.100000	0.840347	0.040171
192.150000	0.840347	0.040171
192.570000	0.840347	0.040171
193.010000	0.840347	0.040171
193.120000	0.840347	0.040171
193.540000	0.840347	0.040171
193.580000	0.840347	0.040171
194.030000	0.840347	0.040171
194.450000	0.840347	0.040171
194.880000	0.840347	0.040171
195.340000	0.840347	0.040171
196.150000	0.840347	0.040171
196.600000	0.840347	0.040171
198.690000	0.840347	0.040171
199.970000	0.840347	0.040171
202.100000	0.840347	0.040171
208.410000	0.840347	0.040171
220.440000	0.840347	0.040171
