using files: 
input-train_pred100.series
target-train_pred100.series
input-test_pred100.series
target-test_pred100.series
input-validate_pred100.series
target-validate_pred100.series
0.020000	0.195956	0.070555
0.030000	0.160369	0.069771
0.050000	0.125112	0.068193
0.120000	0.127850	0.068537
0.130000	0.166036	0.066883
0.240000	0.503064	0.066637
0.410000	0.452511	0.065315
0.750000	0.547116	0.066182
0.770000	0.515716	0.065934
0.930000	0.543036	0.065001
1.100000	0.519322	0.064371
1.600000	0.510383	0.064364
1.780000	0.592706	0.064483
2.110000	0.619992	0.063884
4.260000	0.673367	0.063311
4.280000	0.658619	0.063138
4.460000	0.681269	0.062378
4.800000	0.678683	0.062371
5.290000	0.696535	0.062275
6.270000	0.679338	0.061054
7.750000	0.679434	0.061656
7.930000	0.682297	0.061702
8.090000	0.684183	0.061789
8.270000	0.685461	0.061865
8.440000	0.686324	0.061923
8.780000	0.686233	0.061723
8.950000	0.685783	0.061563
9.120000	0.685482	0.061456
9.290000	0.685282	0.061386
9.310000	0.686819	0.060438
9.480000	0.685287	0.059868
9.650000	0.687358	0.059290
9.830000	0.684066	0.059159
10.000000	0.683922	0.058933
10.340000	0.683908	0.058967
11.000000	0.684018	0.058988
11.170000	0.684210	0.059083
11.510000	0.684280	0.059017
12.000000	0.681018	0.058745
13.000000	0.680308	0.058758
13.170000	0.680307	0.058838
13.340000	0.680307	0.058908
13.840000	0.680302	0.058881
14.030000	0.680795	0.058853
14.680000	0.680860	0.058886
14.700000	0.680638	0.058899
14.860000	0.680976	0.058882
15.040000	0.681049	0.058880
15.210000	0.681094	0.058879
15.380000	0.681123	0.058878
15.550000	0.681141	0.058878
15.570000	0.681091	0.058882
15.740000	0.681144	0.058884
15.900000	0.681391	0.059364
16.570000	0.681571	0.058832
16.740000	0.681621	0.058248
17.070000	0.681615	0.058412
17.090000	0.683076	0.058030
17.250000	0.682175	0.058459
17.270000	0.682605	0.058081
17.940000	0.684348	0.058231
17.950000	0.682326	0.057952
18.120000	0.681691	0.057972
18.290000	0.682830	0.058151
18.460000	0.681735	0.058020
18.620000	0.681070	0.057944
18.800000	0.680668	0.057900
18.820000	0.681416	0.057884
18.980000	0.681157	0.057726
19.000000	0.680884	0.057762
19.170000	0.681336	0.057654
19.340000	0.681442	0.057612
19.510000	0.681500	0.057589
20.170000	0.681487	0.057590
20.180000	0.681325	0.057620
20.360000	0.681442	0.057626
20.540000	0.681422	0.057638
20.700000	0.681440	0.057666
20.720000	0.683093	0.057610
21.220000	0.684855	0.056659
21.550000	0.684286	0.056844
21.570000	0.684909	0.057125
22.060000	0.685479	0.057119
22.230000	0.685754	0.056951
22.400000	0.686083	0.057125
22.420000	0.686431	0.056840
22.570000	0.686135	0.057049
22.740000	0.686937	0.056763
22.910000	0.687392	0.056607
23.080000	0.687652	0.056519
23.250000	0.687800	0.056470
23.420000	0.687885	0.056442
23.600000	0.687933	0.056426
23.620000	0.687186	0.057138
23.940000	0.687977	0.056412
23.960000	0.687247	0.057186
24.140000	0.687323	0.057092
24.310000	0.687367	0.057040
24.330000	0.687347	0.057324
24.490000	0.687283	0.057037
24.510000	0.687592	0.057227
24.660000	0.687491	0.057195
24.850000	0.687808	0.057144
25.020000	0.687852	0.057127
25.200000	0.687876	0.057118
25.360000	0.687890	0.057113
25.520000	0.687864	0.057012
25.540000	0.687946	0.057167
25.710000	0.687880	0.056953
25.720000	0.688079	0.057202
25.880000	0.687895	0.056866
26.060000	0.687904	0.056820
26.070000	0.688199	0.056983
26.240000	0.688116	0.056905
26.260000	0.688506	0.056862
26.410000	0.689711	0.056525
26.580000	0.690450	0.056423
26.760000	0.690888	0.056371
26.930000	0.691111	0.056343
26.940000	0.692107	0.056160
27.110000	0.692331	0.056164
27.120000	0.692549	0.056153
27.280000	0.693197	0.056088
27.300000	0.692807	0.056149
27.460000	0.693352	0.056097
27.640000	0.693437	0.056103
27.670000	0.693411	0.056165
27.840000	0.693379	0.056281
28.010000	0.693362	0.056355
28.170000	0.693370	0.056352
28.190000	0.693352	0.056399
28.350000	0.693201	0.056565
28.380000	0.693908	0.056299
28.550000	0.693908	0.056437
28.720000	0.694215	0.056460
29.050000	0.694335	0.056385
29.390000	0.694399	0.056327
29.560000	0.694447	0.056322
29.720000	0.694628	0.056229
30.060000	0.694682	0.056237
30.240000	0.694710	0.056184
30.570000	0.694725	0.056158
30.740000	0.694762	0.056107
30.920000	0.694782	0.056080
31.080000	0.694792	0.056067
31.250000	0.694698	0.056096
31.420000	0.694565	0.056123
31.580000	0.694496	0.056138
31.600000	0.694578	0.056124
31.770000	0.694526	0.056136
31.940000	0.694542	0.056135
32.110000	0.694550	0.056135
32.130000	0.694537	0.056141
32.300000	0.694560	0.056134
32.320000	0.694700	0.056174
32.480000	0.694736	0.056162
32.500000	0.694834	0.056141
32.660000	0.694927	0.056168
32.840000	0.695017	0.056173
32.860000	0.694941	0.056162
33.030000	0.694961	0.056182
33.050000	0.695080	0.056099
33.190000	0.695148	0.056168
33.370000	0.695157	0.056156
33.380000	0.695152	0.056185
33.540000	0.695156	0.056176
33.560000	0.695232	0.056182
33.730000	0.695272	0.056181
33.900000	0.695294	0.056182
33.920000	0.695324	0.056207
34.070000	0.695357	0.056177
34.250000	0.695388	0.056174
34.270000	0.695430	0.056183
34.440000	0.695456	0.056172
34.460000	0.695543	0.056191
34.630000	0.695625	0.056167
34.790000	0.695707	0.056161
34.950000	0.695752	0.056160
34.970000	0.695748	0.056159
35.130000	0.695797	0.056151
35.300000	0.695880	0.056147
35.470000	0.695920	0.056146
35.650000	0.695940	0.056145
35.660000	0.695957	0.056144
35.820000	0.695955	0.056145
35.840000	0.696002	0.056140
36.000000	0.696010	0.056141
36.020000	0.696024	0.056138
36.190000	0.696047	0.056136
36.370000	0.696065	0.056134
36.530000	0.696074	0.056133
36.570000	0.696102	0.056129
36.740000	0.696125	0.056127
36.910000	0.696137	0.056126
37.080000	0.696147	0.056125
37.240000	0.696166	0.056122
37.400000	0.696158	0.056125
37.420000	0.696189	0.056121
37.580000	0.696210	0.056119
37.750000	0.696235	0.056116
37.920000	0.696246	0.056115
38.090000	0.696252	0.056114
38.110000	0.696251	0.056114
38.290000	0.696259	0.056113
38.310000	0.696248	0.056113
38.470000	0.696263	0.056112
38.480000	0.696254	0.056113
38.490000	0.696251	0.056112
38.660000	0.696254	0.056112
38.670000	0.696253	0.056112
38.840000	0.696253	0.056112
39.010000	0.696252	0.056112
39.190000	0.696252	0.056112
39.340000	0.696255	0.056108
39.510000	0.696249	0.056108
39.680000	0.696246	0.056108
39.860000	0.696245	0.056108
39.870000	0.696244	0.056108
40.040000	0.696242	0.056108
40.050000	0.696243	0.056108
40.070000	0.696238	0.056106
40.240000	0.696238	0.056106
40.400000	0.696237	0.056107
40.430000	0.696234	0.056105
40.590000	0.696235	0.056106
40.610000	0.696232	0.056105
40.620000	0.696233	0.056105
40.780000	0.696230	0.056105
40.800000	0.696232	0.056104
40.820000	0.696233	0.056105
40.960000	0.696231	0.056104
40.980000	0.696229	0.056104
40.990000	0.696234	0.056104
41.150000	0.696230	0.056103
41.320000	0.696229	0.056103
41.490000	0.696229	0.056103
41.520000	0.696229	0.056105
41.670000	0.696229	0.056103
41.690000	0.696230	0.056103
41.710000	0.696228	0.056106
41.870000	0.696228	0.056106
41.890000	0.696227	0.056106
42.060000	0.696225	0.056107
42.240000	0.696224	0.056108
42.390000	0.696225	0.056108
42.410000	0.696225	0.056108
42.570000	0.696224	0.056107
42.750000	0.696223	0.056107
42.910000	0.696223	0.056107
42.930000	0.696223	0.056107
43.090000	0.696222	0.056107
43.270000	0.696222	0.056108
43.440000	0.696222	0.056108
43.620000	0.696221	0.056108
43.630000	0.696221	0.056108
43.810000	0.696221	0.056108
43.970000	0.696221	0.056108
44.140000	0.696220	0.056108
44.160000	0.696220	0.056108
44.320000	0.696220	0.056108
44.330000	0.696220	0.056108
44.350000	0.696220	0.056108
44.370000	0.696220	0.056108
44.540000	0.696219	0.056108
44.710000	0.696219	0.056108
44.880000	0.696219	0.056108
45.040000	0.696219	0.056108
45.060000	0.696219	0.056108
45.220000	0.696218	0.056108
45.240000	0.696218	0.056108
45.400000	0.696218	0.056108
45.580000	0.696218	0.056108
45.750000	0.696217	0.056108
45.760000	0.696217	0.056108
45.920000	0.696217	0.056108
45.940000	0.696217	0.056108
46.120000	0.696217	0.056108
46.130000	0.696217	0.056108
46.300000	0.696217	0.056108
46.320000	0.696217	0.056108
46.340000	0.696217	0.056108
46.500000	0.696217	0.056108
46.510000	0.696217	0.056108
46.680000	0.696217	0.056108
46.840000	0.696217	0.056108
47.010000	0.696216	0.056108
47.020000	0.696216	0.056108
47.190000	0.696216	0.056108
47.370000	0.696216	0.056108
47.540000	0.696216	0.056108
47.560000	0.696216	0.056108
47.740000	0.696216	0.056108
47.900000	0.696216	0.056108
47.920000	0.696216	0.056108
48.080000	0.696216	0.056108
48.100000	0.696216	0.056108
48.120000	0.696215	0.056108
48.290000	0.696215	0.056108
48.310000	0.696215	0.056108
48.470000	0.696215	0.056108
48.630000	0.696215	0.056108
48.650000	0.696215	0.056108
48.800000	0.696215	0.056108
48.980000	0.696215	0.056108
49.160000	0.696215	0.056108
49.330000	0.696215	0.056108
49.340000	0.696215	0.056108
49.510000	0.696215	0.056108
49.530000	0.696215	0.056108
49.540000	0.696215	0.056108
49.710000	0.696215	0.056108
49.880000	0.696215	0.056108
49.900000	0.696215	0.056108
50.070000	0.696215	0.056108
50.080000	0.696215	0.056108
50.250000	0.696215	0.056108
50.270000	0.696215	0.056108
50.420000	0.696215	0.056108
50.590000	0.696215	0.056108
50.600000	0.696215	0.056108
50.770000	0.696215	0.056108
50.780000	0.696215	0.056108
50.950000	0.696215	0.056108
51.120000	0.696215	0.056108
51.290000	0.696215	0.056108
51.310000	0.696215	0.056108
51.330000	0.696215	0.056108
51.500000	0.696215	0.056108
51.660000	0.696215	0.056108
51.680000	0.696215	0.056108
51.700000	0.696215	0.056108
51.860000	0.696215	0.056108
51.880000	0.696215	0.056108
52.040000	0.696215	0.056108
52.050000	0.696215	0.056108
52.210000	0.696215	0.056108
52.380000	0.696215	0.056108
52.540000	0.696215	0.056108
52.720000	0.696215	0.056108
52.890000	0.696215	0.056108
53.060000	0.696215	0.056108
53.100000	0.696215	0.056108
53.250000	0.696215	0.056108
53.280000	0.696215	0.056108
53.440000	0.696215	0.056108
53.610000	0.696215	0.056108
53.770000	0.696215	0.056108
53.940000	0.696215	0.056108
54.120000	0.696215	0.056108
54.280000	0.696215	0.056108
54.450000	0.696215	0.056108
54.620000	0.696215	0.056108
54.660000	0.696215	0.056108
54.820000	0.696215	0.056108
55.000000	0.696215	0.056108
55.170000	0.696215	0.056108
55.320000	0.696215	0.056108
55.490000	0.696215	0.056108
55.500000	0.696215	0.056108
55.670000	0.696215	0.056108
55.690000	0.696215	0.056108
55.860000	0.696215	0.056108
56.020000	0.696215	0.056108
56.050000	0.696215	0.056108
56.220000	0.696215	0.056108
56.380000	0.696215	0.056108
56.400000	0.696215	0.056108
56.420000	0.696215	0.056108
56.590000	0.696215	0.056108
56.600000	0.696215	0.056108
56.770000	0.696215	0.056108
56.930000	0.696215	0.056108
56.950000	0.696215	0.056108
57.110000	0.696215	0.056108
57.280000	0.696215	0.056108
57.300000	0.696215	0.056108
57.460000	0.696215	0.056108
57.650000	0.696215	0.056108
57.820000	0.696215	0.056108
58.000000	0.696215	0.056108
58.320000	0.696215	0.056108
59.460000	0.696215	0.056108
61.590000	0.696215	0.056108
64.700000	0.696215	0.056108
79.240000	0.696215	0.056108
81.200000	0.696215	0.056108
81.700000	0.696215	0.056108
85.240000	0.696215	0.056108
