using files: 
input-train_pred75.series
target-train_pred75.series
input-test_pred75.series
target-test_pred75.series
input-validate_pred75.series
target-validate_pred75.series
0.070000	0.490331	0.027194
0.210000	0.445266	0.026106
0.540000	0.413898	0.026556
5.550000	0.388522	0.024975
14.760000	0.611258	0.026395
25.300000	0.596595	0.027604
35.630000	0.653660	0.028377
43.700000	0.651053	0.028793
49.090000	0.634901	0.028643
51.830000	0.635862	0.028681
53.240000	0.638935	0.028679
54.630000	0.642422	0.028679
58.690000	0.640118	0.028683
60.090000	0.639482	0.028685
64.180000	0.639821	0.028685
65.600000	0.640205	0.028688
67.010000	0.640468	0.028690
68.430000	0.640647	0.028692
69.840000	0.640766	0.028693
71.260000	0.640847	0.028693
72.680000	0.640901	0.028694
74.090000	0.640937	0.028694
75.500000	0.640962	0.028694
76.920000	0.640978	0.028694
78.340000	0.640989	0.028694
79.750000	0.640996	0.028694
81.160000	0.641001	0.028694
82.580000	0.641004	0.028694
84.000000	0.641006	0.028694
85.400000	0.641008	0.028694
86.810000	0.641009	0.028694
88.220000	0.641009	0.028694
89.630000	0.641010	0.028694
91.040000	0.641010	0.028694
92.460000	0.641010	0.028694
93.870000	0.641010	0.028694
95.290000	0.641010	0.028694
96.700000	0.641010	0.028694
98.130000	0.641010	0.028694
99.550000	0.641010	0.028694
100.960000	0.641010	0.028694
102.370000	0.641010	0.028694
103.770000	0.641010	0.028694
105.190000	0.641010	0.028694
106.590000	0.641010	0.028694
108.000000	0.641010	0.028694
109.400000	0.641010	0.028694
110.810000	0.641010	0.028694
112.230000	0.641010	0.028694
131.140000	0.704290	0.027285
136.560000	0.664583	0.027494
139.310000	0.668346	0.027442
142.050000	0.669691	0.027355
143.390000	0.705087	0.027693
144.870000	0.704588	0.027741
146.200000	0.688397	0.027690
150.350000	0.675304	0.027789
151.680000	0.679448	0.027848
157.190000	0.674538	0.027847
158.600000	0.672761	0.027842
160.010000	0.671613	0.027840
161.430000	0.670922	0.027838
162.840000	0.670509	0.027838
164.260000	0.670263	0.027838
165.600000	0.666277	0.027855
167.000000	0.662978	0.027861
167.150000	0.665585	0.027882
168.560000	0.662913	0.027904
169.910000	0.661148	0.027905
171.320000	0.660998	0.027921
172.730000	0.660913	0.027930
174.140000	0.660864	0.027935
174.280000	0.660059	0.027914
175.680000	0.659422	0.027925
177.080000	0.659058	0.027932
178.420000	0.659507	0.027935
179.830000	0.659143	0.027939
181.240000	0.658935	0.027942
182.630000	0.658815	0.027943
182.780000	0.659188	0.027943
184.120000	0.658772	0.027941
184.250000	0.659102	0.027947
185.600000	0.659209	0.027946
187.010000	0.659463	0.027950
188.430000	0.659609	0.027951
188.560000	0.659309	0.027952
189.900000	0.659462	0.027952
190.050000	0.659487	0.027952
191.450000	0.659590	0.027953
192.800000	0.659484	0.027954
192.930000	0.659648	0.027953
194.280000	0.659613	0.027952
194.430000	0.659682	0.027953
195.760000	0.659764	0.027951
197.170000	0.659850	0.027951
197.310000	0.659724	0.027953
198.730000	0.659737	0.027952
200.080000	0.659708	0.027952
200.220000	0.659745	0.027952
201.560000	0.659694	0.027953
202.960000	0.659686	0.027953
204.370000	0.659682	0.027953
205.780000	0.659679	0.027953
207.190000	0.659678	0.027953
207.330000	0.659674	0.027953
208.670000	0.659678	0.027953
208.800000	0.659680	0.027953
210.140000	0.659676	0.027953
211.560000	0.659674	0.027954
211.700000	0.659680	0.027953
213.030000	0.659677	0.027954
213.180000	0.659677	0.027954
214.510000	0.659677	0.027954
214.650000	0.659676	0.027954
216.000000	0.659676	0.027954
216.140000	0.659675	0.027954
217.470000	0.659674	0.027954
218.870000	0.659674	0.027954
220.310000	0.659673	0.027954
220.450000	0.659674	0.027954
221.860000	0.659673	0.027954
223.190000	0.659673	0.027954
223.330000	0.659673	0.027954
224.680000	0.659673	0.027954
226.080000	0.659673	0.027954
227.510000	0.659673	0.027954
228.910000	0.659673	0.027954
229.050000	0.659673	0.027954
230.390000	0.659673	0.027954
230.540000	0.659673	0.027954
231.880000	0.659673	0.027954
232.020000	0.659673	0.027954
233.350000	0.659673	0.027954
233.490000	0.659673	0.027954
234.820000	0.659672	0.027954
236.220000	0.659672	0.027954
237.630000	0.659672	0.027954
239.030000	0.659672	0.027954
239.170000	0.659672	0.027954
240.530000	0.659672	0.027954
240.670000	0.659672	0.027954
242.070000	0.659672	0.027954
243.480000	0.659672	0.027954
244.900000	0.659672	0.027954
246.300000	0.659672	0.027954
247.640000	0.659672	0.027954
249.040000	0.659672	0.027954
250.430000	0.659672	0.027954
251.850000	0.659672	0.027954
251.990000	0.659672	0.027954
253.310000	0.659672	0.027954
253.450000	0.659672	0.027954
254.870000	0.659672	0.027954
256.200000	0.659672	0.027954
257.610000	0.659672	0.027954
259.020000	0.659672	0.027954
260.430000	0.659672	0.027954
261.850000	0.659672	0.027954
261.980000	0.659672	0.027954
263.320000	0.659672	0.027954
263.460000	0.659672	0.027954
264.790000	0.659672	0.027954
266.190000	0.659672	0.027954
267.600000	0.659672	0.027954
269.000000	0.659672	0.027954
270.480000	0.659672	0.027954
273.210000	0.659672	0.027954
282.640000	0.659672	0.027954
318.600000	0.651127	0.027882
324.010000	0.657113	0.027792
324.140000	0.658182	0.027799
328.140000	0.661708	0.027802
328.290000	0.659934	0.027825
329.700000	0.660920	0.027829
329.830000	0.663792	0.027854
331.170000	0.663388	0.027849
331.310000	0.664486	0.027870
332.640000	0.664507	0.027884
332.780000	0.664805	0.027877
334.110000	0.665351	0.027889
334.260000	0.664957	0.027880
335.580000	0.664955	0.027888
335.720000	0.665028	0.027882
337.050000	0.664936	0.027884
338.390000	0.667192	0.027917
338.530000	0.665399	0.027905
339.990000	0.666798	0.027928
341.270000	0.665550	0.027917
342.670000	0.664623	0.027915
344.080000	0.664208	0.027914
345.470000	0.664025	0.027914
345.610000	0.664162	0.027912
347.020000	0.664088	0.027914
348.410000	0.664055	0.027915
349.820000	0.664041	0.027915
350.280000	0.629867	0.027896
351.680000	0.631507	0.027834
358.470000	0.628868	0.027749
359.810000	0.630256	0.027786
359.950000	0.628196	0.027710
361.280000	0.624617	0.027710
362.670000	0.622270	0.027678
364.080000	0.621284	0.027665
365.480000	0.620865	0.027659
366.870000	0.620686	0.027657
368.270000	0.620610	0.027656
368.410000	0.621343	0.027649
369.730000	0.620550	0.027653
371.130000	0.620525	0.027652
372.530000	0.620515	0.027652
373.930000	0.620510	0.027652
375.330000	0.620508	0.027652
375.460000	0.620423	0.027652
376.800000	0.620346	0.027652
376.930000	0.620489	0.027651
378.280000	0.620415	0.027651
378.410000	0.620516	0.027651
379.740000	0.620571	0.027651
381.150000	0.620637	0.027651
382.570000	0.620664	0.027651
383.970000	0.620676	0.027651
385.360000	0.620680	0.027651
386.770000	0.620682	0.027651
388.180000	0.620683	0.027651
389.570000	0.620684	0.027651
390.970000	0.620684	0.027651
391.100000	0.620672	0.027651
392.510000	0.620684	0.027651
393.850000	0.620680	0.027651
395.270000	0.620681	0.027651
396.660000	0.620681	0.027651
398.060000	0.620681	0.027651
398.200000	0.620673	0.027651
399.600000	0.620672	0.027651
401.010000	0.620671	0.027651
402.340000	0.620672	0.027651
403.750000	0.620671	0.027651
405.130000	0.620671	0.027651
405.270000	0.620671	0.027651
406.600000	0.620671	0.027651
406.740000	0.620671	0.027651
408.140000	0.620671	0.027651
409.480000	0.620670	0.027651
409.610000	0.620671	0.027651
410.940000	0.620671	0.027651
412.340000	0.620671	0.027651
413.750000	0.620671	0.027651
413.890000	0.620671	0.027651
415.220000	0.620671	0.027651
415.360000	0.620671	0.027651
416.760000	0.620671	0.027651
418.160000	0.620671	0.027651
419.490000	0.620671	0.027651
422.230000	0.620671	0.027651
426.300000	0.620671	0.027651
687.250000	0.620671	0.027651
